;*************************************************************
;*************************************************************
;**                                                         **
;**                         mant                            **
;**                                                         **
;*************************************************************
;*************************************************************
In: FL_SPCRES=0 FL_CPXRES=0 SD=0 RM=0 IM=2compl SS=4 WS=64
Func: fnMant



;=======================================
; mant(Long Integer) --> Real
;=======================================
In:  AM=DEG FL_ASLIFT=0 FL_CPXRES=0 RX=LonI:"12345678901234567"
Out: EC=0 FL_CPXRES=0 FL_ASLIFT=1 RL=LonI:"12345678901234567" RX=Real:"1.2345678901234567"

In:  AM=DEG FL_ASLIFT=0 FL_CPXRES=0 RX=LonI:"-52"
Out: EC=0 FL_CPXRES=0 FL_ASLIFT=1 RL=LonI:"-52" RX=Real:"-5.2"

In:  AM=DEG FL_ASLIFT=0 FL_CPXRES=0 RX=LonI:"0"
Out: EC=0 FL_CPXRES=0 FL_ASLIFT=1 RL=LonI:"0" RX=Real:"0"



;=======================================
; mant(Time) --> Error24
;=======================================



;=======================================
; mant(Date) --> Error24
;=======================================



;=======================================
; mant(String) --> Error24
;=======================================
In:  FL_ASLIFT=0 RX=Stri:"String test"
Out: EC=24 FL_ASLIFT=0 RX=Stri:"String test"



;=======================================
; mant(Real Matrix) --> Real Matrix
;=======================================
In:  AM=DEG FL_ASLIFT=0 FL_CPXRES=0 RX=ReMa:"M2,3[1,22,333,4444,55555,666666]"
Out: EC=0 FL_CPXRES=0 FL_ASLIFT=1 RL=ReMa:"M2,3[1,22,333,4444,55555,666666]" RX=ReMa:"M2,3[1,2.2,3.33,4.444,5.5555,6.66666]"



;=======================================
; mant(Complex Matrix) --> Error24
;=======================================



;=======================================
; mant(Short Integer) --> Error24
;=======================================
In:  FL_ASLIFT=0 FL_CPXRES=0 RX=ShoI:"5#7"
Out: EC=24 FL_CPXRES=0 FL_ASLIFT=0 RX=ShoI:"5#7"



;=======================================
; mant(Real) --> Real
;=======================================
In:  AM=DEG FL_ASLIFT=0 FL_CPXRES=0 RX=Real:"0.0001"
Out: EC=0 FL_CPXRES=0 FL_ASLIFT=1 RL=Real:"0.0001" RX=Real:"1"

In:  AM=GRAD FL_ASLIFT=0 FL_CPXRES=0 RX=Real:"50"
Out: EC=0 FL_CPXRES=0 FL_ASLIFT=1 RL=Real:"50" RX=Real:"5"

In:  AM=MULTPI FL_ASLIFT=0 FL_CPXRES=0 RX=Real:"5.6789101112131415161718e234"
Out: EC=0 FL_CPXRES=0 FL_ASLIFT=1 RL=Real:"5.6789101112131415161718e234" RX=Real:"5.6789101112131415161718"

In:  AM=DEG FL_ASLIFT=0 FL_CPXRES=0 RX=Real:"89.999999999"
Out: EC=0 FL_CPXRES=0 FL_ASLIFT=1 RL=Real:"89.999999999" RX=Real:"8.9999999999"

;In:  FL_ASLIFT=0 FL_CPXRES=0 RX=Real:"5.32564":DMS
;Out: EC=0 FL_CPXRES=0 FL_ASLIFT=1 RL=Real:"5.32564":DMS RX=Real:"5.32564"

In:  FL_ASLIFT=0 FL_CPXRES=0 RX=Real:"-5.32564":GRAD
Out: EC=0 FL_CPXRES=0 FL_ASLIFT=1 RL=Real:"-5.32564":GRAD RX=Real:"-5.32564"

In:  FL_ASLIFT=0 FL_CPXRES=0 RX=Real:"45":DEG
Out: EC=0 FL_CPXRES=0 FL_ASLIFT=1 RL=Real:"45":DEG RX=Real:"4.5"

; NaN
In:  FL_ASLIFT=0 FL_CPXRES=0 RX=Real:"NaN":RAD
Out: EC=1 FL_CPXRES=0 FL_ASLIFT=0 RX=Real:"NaN":RAD

; Infinity
In:  FL_ASLIFT=0 FL_CPXRES=0 FL_SPCRES=1 RX=Real:"inf":DEG
Out: EC=0 FL_CPXRES=0 FL_ASLIFT=1 RL=Real:"inf":DEG RX=Real:"inf"

In:  FL_ASLIFT=0 FL_CPXRES=0 FL_SPCRES=0 RX=Real:"inf":MULTPI
Out: EC=4 FL_CPXRES=0 FL_ASLIFT=0 RX=Real:"inf":MULTPI

In:  FL_ASLIFT=0 FL_CPXRES=0 FL_SPCRES=0 RX=Real:"-inf":RAD
Out: EC=5 FL_CPXRES=0 FL_ASLIFT=0 RX=Real:"-inf":RAD

; NaN
In:  FL_ASLIFT=0 FL_CPXRES=0 RX=Real:"NaN"
Out: EC=1 FL_CPXRES=0 FL_ASLIFT=0 RX=Real:"NaN"

; Infinity
In:  FL_ASLIFT=0 FL_CPXRES=0 FL_SPCRES=1 RX=Real:"inf"
Out: EC=0 FL_CPXRES=0 FL_ASLIFT=1 RL=Real:"inf" RX=Real:"inf"

In:  FL_ASLIFT=0 FL_CPXRES=0 FL_SPCRES=0 RX=Real:"inf"
Out: EC=4 FL_CPXRES=0 FL_ASLIFT=0 RX=Real:"inf"

In:  FL_ASLIFT=0 FL_CPXRES=0 FL_SPCRES=0 RX=Real:"-inf"
Out: EC=5 FL_CPXRES=0 FL_ASLIFT=0 RX=Real:"-inf"



;=======================================
; mant(Complex) --> Error24
;=======================================
In:  AM=DEG FL_ASLIFT=0 FL_CPXRES=0 RX=Cplx:"6.2 i -7.6"
Out: EC=24 FL_CPXRES=0 FL_ASLIFT=0 RX=Cplx:"6.2 i -7.6"
